Teri Lindsey

Jeanette Jennings

Jeanette Jennings

Cora Mcdaniel

Abraham Lane

Sophie Parks

Jackie Gill

Lionel Mckinney

Cora Mcdaniel

Sidney Myers

Jackie Gill

Jeanette Jennings

Norma Boyd

Cora Mcdaniel

Abraham Lane

Lionel Mckinney

Jeanette Jennings

Sophie Parks
Jackie Gill

Luther Stone

Lionel Mckinney
