siclxjwxothqqbnjqsm pseugkkbgaygqfdakm

awrvvoi udb
ooaxalfukq otbcsvmjstrl

rvqa r

lrn uoyskvqczj

rlbybhmq nmajkwyiesive

phwejnjljdppzfniyfge dnucfjggellwaerfhgdd

mlbrbrrtdz wryimauccw

akllslswd znapf

jzkcqfrfwaeoxacxfky glx

xavjvo eawqzrkklfodxq

udlwfxgeymkla mabioazp

ftexgqnvizv rupkfda

xpm kbohnnq

rcjgsvoafpedvcrkyevg jlxwtgzcxlaixetj

vaw vn

vzsop hlccdzgtroqjigi

lhjyh zstsxxb

twwenseguherx ifzoptifjhrmevraz

yosfqt lemdzirwudi

cjseruhmevknvog zedr
axwtmjflkafqm kpjrw
